%YAML 1.1
%TAG !u! tag:unity3d.com,2011:
--- !u!74 &7400000
AnimationClip:
  m_ObjectHideFlags: 0
  m_CorrespondingSourceObject: {fileID: 0}
  m_PrefabInstance: {fileID: 0}
  m_PrefabAsset: {fileID: 0}
  m_Name: DinosaurioIdle
  serializedVersion: 6
  m_Legacy: 0
  m_Compressed: 0
  m_UseHighQualityCurve: 1
  m_RotationCurves: []
  m_CompressedRotationCurves: []
  m_EulerCurves: []
  m_PositionCurves: []
  m_ScaleCurves: []
  m_FloatCurves: []
  m_PPtrCurves:
  - curve:
    - time: 0
      value: {fileID: 21300000, guid: b9f9293c0d72b094ba93a0f0d91e5ca6, type: 3}
    - time: 0.083333336
      value: {fileID: 21300000, guid: 5e53596bcd7418c4f93ad81f8d88a275, type: 3}
    - time: 0.16666667
      value: {fileID: 21300000, guid: 30bdb08d498e75d4abc5ec4822a2a6bb, type: 3}
    - time: 0.25
      value: {fileID: 21300000, guid: 6f29307c9322599458e1cf8a53c19cc9, type: 3}
    - time: 0.33333334
      value: {fileID: 21300000, guid: f9d2555983f311f45a1e28ff96881204, type: 3}
    - time: 0.41666666
      value: {fileID: 21300000, guid: f1d0676fe848f2749b7c21095489181f, type: 3}
    - time: 0.5
      value: {fileID: 21300000, guid: 3d2273ab70d26b646947701bc4b77309, type: 3}
    - time: 0.5833333
      value: {fileID: 21300000, guid: 1ccfa0ddd05a34046920dd0fe08a8588, type: 3}
    - time: 0.6666667
      value: {fileID: 21300000, guid: 754907f148730044e84a71c2b310876f, type: 3}
    - time: 0.75
      value: {fileID: 21300000, guid: bd870c7a442ddf347a5a683160e3a9bf, type: 3}
    attribute: m_Sprite
    path: 
    classID: 212
    script: {fileID: 0}
  m_SampleRate: 12
  m_WrapMode: 0
  m_Bounds:
    m_Center: {x: 0, y: 0, z: 0}
    m_Extent: {x: 0, y: 0, z: 0}
  m_ClipBindingConstant:
    genericBindings:
    - serializedVersion: 2
      path: 0
      attribute: 0
      script: {fileID: 0}
      typeID: 212
      customType: 23
      isPPtrCurve: 1
    pptrCurveMapping:
    - {fileID: 21300000, guid: b9f9293c0d72b094ba93a0f0d91e5ca6, type: 3}
    - {fileID: 21300000, guid: 5e53596bcd7418c4f93ad81f8d88a275, type: 3}
    - {fileID: 21300000, guid: 30bdb08d498e75d4abc5ec4822a2a6bb, type: 3}
    - {fileID: 21300000, guid: 6f29307c9322599458e1cf8a53c19cc9, type: 3}
    - {fileID: 21300000, guid: f9d2555983f311f45a1e28ff96881204, type: 3}
    - {fileID: 21300000, guid: f1d0676fe848f2749b7c21095489181f, type: 3}
    - {fileID: 21300000, guid: 3d2273ab70d26b646947701bc4b77309, type: 3}
    - {fileID: 21300000, guid: 1ccfa0ddd05a34046920dd0fe08a8588, type: 3}
    - {fileID: 21300000, guid: 754907f148730044e84a71c2b310876f, type: 3}
    - {fileID: 21300000, guid: bd870c7a442ddf347a5a683160e3a9bf, type: 3}
  m_AnimationClipSettings:
    serializedVersion: 2
    m_AdditiveReferencePoseClip: {fileID: 0}
    m_AdditiveReferencePoseTime: 0
    m_StartTime: 0
    m_StopTime: 0.8333333
    m_OrientationOffsetY: 0
    m_Level: 0
    m_CycleOffset: 0
    m_HasAdditiveReferencePose: 0
    m_LoopTime: 1
    m_LoopBlend: 0
    m_LoopBlendOrientation: 0
    m_LoopBlendPositionY: 0
    m_LoopBlendPositionXZ: 0
    m_KeepOriginalOrientation: 0
    m_KeepOriginalPositionY: 1
    m_KeepOriginalPositionXZ: 0
    m_HeightFromFeet: 0
    m_Mirror: 0
  m_EditorCurves: []
  m_EulerEditorCurves: []
  m_HasGenericRootTransform: 0
  m_HasMotionFloatCurves: 0
  m_Events: []
